%YAML 1.1
%TAG !u! tag:unity3d.com,2011:
--- !u!1 &7761797270279192559
GameObject:
  m_ObjectHideFlags: 0
  m_CorrespondingSourceObject: {fileID: 0}
  m_PrefabInstance: {fileID: 0}
  m_PrefabAsset: {fileID: 0}
  serializedVersion: 6
  m_Component:
  - component: {fileID: 7761797270279192553}
  - component: {fileID: 7761797270279192558}
  m_Layer: 0
  m_Name: Map Generator
  m_TagString: Untagged
  m_Icon: {fileID: 0}
  m_NavMeshLayer: 0
  m_StaticEditorFlags: 0
  m_IsActive: 1
--- !u!4 &7761797270279192553
Transform:
  m_ObjectHideFlags: 0
  m_CorrespondingSourceObject: {fileID: 0}
  m_PrefabInstance: {fileID: 0}
  m_PrefabAsset: {fileID: 0}
  m_GameObject: {fileID: 7761797270279192559}
  m_LocalRotation: {x: 0, y: 0, z: 0, w: 1}
  m_LocalPosition: {x: 0, y: 1, z: 0}
  m_LocalScale: {x: 1, y: 1, z: 1}
  m_Children: []
  m_Father: {fileID: 0}
  m_RootOrder: 0
  m_LocalEulerAnglesHint: {x: 0, y: 0, z: 0}
--- !u!114 &7761797270279192558
MonoBehaviour:
  m_ObjectHideFlags: 0
  m_CorrespondingSourceObject: {fileID: 0}
  m_PrefabInstance: {fileID: 0}
  m_PrefabAsset: {fileID: 0}
  m_GameObject: {fileID: 7761797270279192559}
  m_Enabled: 1
  m_EditorHideFlags: 0
  m_Script: {fileID: 11500000, guid: ae706d537eb993342921fd300051577f, type: 3}
  m_Name: 
  m_EditorClassIdentifier: 
  gridPrefabs:
  - {fileID: 5669136460386284198, guid: 7b12a71563ce22245a39453357e65fcc, type: 3}
  - {fileID: 1928088929417408010, guid: 42de643eda8c8234198627255759a7f8, type: 3}
  - {fileID: 115043489533564857, guid: 9608b51b16392ac40b2440dff3e2a357, type: 3}
  - {fileID: 121816, guid: 41d4243be8ad3a5409422171976de7ff, type: 3}
  rows: 1
  cols: 1
  isMapOfTheDay: 1
  isRandomMap: 0
  mapSeed: 0
