%YAML 1.1
%TAG !u! tag:unity3d.com,2011:
--- !u!1 &1688698182687123062
GameObject:
  m_ObjectHideFlags: 0
  m_CorrespondingSourceObject: {fileID: 0}
  m_PrefabInstance: {fileID: 0}
  m_PrefabAsset: {fileID: 0}
  serializedVersion: 6
  m_Component:
  - component: {fileID: 4806066972701365917}
  - component: {fileID: 8090564812304322935}
  m_Layer: 0
  m_Name: PowerSpawner 5
  m_TagString: Untagged
  m_Icon: {fileID: 0}
  m_NavMeshLayer: 0
  m_StaticEditorFlags: 0
  m_IsActive: 1
--- !u!4 &4806066972701365917
Transform:
  m_ObjectHideFlags: 0
  m_CorrespondingSourceObject: {fileID: 0}
  m_PrefabInstance: {fileID: 0}
  m_PrefabAsset: {fileID: 0}
  m_GameObject: {fileID: 1688698182687123062}
  m_LocalRotation: {x: 0, y: 0, z: 0, w: 1}
  m_LocalPosition: {x: -15, y: 1, z: 15}
  m_LocalScale: {x: 1, y: 1, z: 1}
  m_Children: []
  m_Father: {fileID: 0}
  m_RootOrder: 0
  m_LocalEulerAnglesHint: {x: 0, y: 0, z: 0}
--- !u!114 &8090564812304322935
MonoBehaviour:
  m_ObjectHideFlags: 0
  m_CorrespondingSourceObject: {fileID: 0}
  m_PrefabInstance: {fileID: 0}
  m_PrefabAsset: {fileID: 0}
  m_GameObject: {fileID: 1688698182687123062}
  m_Enabled: 1
  m_EditorHideFlags: 0
  m_Script: {fileID: 11500000, guid: 8e38d00b6cc25a440a263029b4ef8d61, type: 3}
  m_Name: 
  m_EditorClassIdentifier: 
  pickupPrefab:
  - {fileID: 832252687116834595, guid: 23aca1578e73ccc419b8f15f79c66e0c, type: 3}
  - {fileID: 4662882016629158546, guid: c6c17464a02362745ab87a719d9c882d, type: 3}
  - {fileID: 3849450810105628492, guid: 2e60642ddf58b5e4db5fdf456464d864, type: 3}
  spawnDelay: 5
  spawnedPickup: {fileID: 0}
